…
materials_df %>%
  select(timestamp, materials_often) %>%
  mutate(mat1 = strsplit(materials_often, ",")) %>%
  unnest(mat1) %>%
  mutate(mat1 = str_trim(mat1)) %>% 
  group_by(mat1) %>%
  summarize(count = n()) %>%
  arrange(-count)
```

    ## # A tibble: 1,026 x 2
    ##    mat1               count
    ##    <chr>              <int>
    ##  1 pencils              274
    ##  2 paper                244
    ##  3 markers              146
    ##  4 glue                 114
    ##  5 crayons               98
    ##  6 pens                  66
    ##  7 folders               64
    ##  8 paint                 64
    ##  9 notebooks             58
    ## 10 construction paper    54
    ## # ... with 1,016 more rows
…
